Open Science Notebook - Steps to update ICWD’s monthly volumetric flow (pumping, surface water, valley totals and means) database from LADWP water-year data ransfer
…
ann.update3<-ann.update2 %>% mutate(year = year(datetime),
                            month = month(datetime),
                            month_abbr = month(datetime, label = TRUE, abbr = TRUE),
                            day = mday(datetime),
                            date.y.m.d = make_date(year, month,day))

# rename the columns

# add the long form name for the station
ann.update4<-ann.update3 %>% select(-date)%>% rename(date = date.y.m.d)%>% left_join(staid, by = 'staid') %>% select(staid,description,read,date,year,month,month_abbr) 

ann.update4

# A tibble: 16,428 × 7
   staid description                         read date        year month month…¹
   <chr> <chr>                              <dbl> <date>     <dbl> <dbl> <ord>  
 1 132   OAK CREEK (NORTH FORK) SPREADING …     0 2021-10-01  2021    10 Oct    
 2 132   OAK CREEK (NORTH FORK) SPREADING …     0 2021-11-01  2021    11 Nov    
 3 132   OAK CREEK (NORTH FORK) SPREADING …     0 2021-12-01  2021    12 Dec    
 4 132   OAK CREEK (NORTH FORK) SPREADING …     0 2022-01-01  2022     1 Jan    
 5 132   OAK CREEK (NORTH FORK) SPREADING …     0 2022-02-01  2022     2 Feb    
 6 132   OAK CREEK (NORTH FORK) SPREADING …     0 2022-03-01  2022     3 Mar    
 7 132   OAK CREEK (NORTH FORK) SPREADING …     0 2022-04-01  2022     4 Apr    
 8 132   OAK CREEK (NORTH FORK) SPREADING …     0 2022-05-01  2022     5 May    
 9 132   OAK CREEK (NORTH FORK) SPREADING …     0 2022-06-01  2022     6 Jun    
10 132   OAK CREEK (NORTH FORK) SPREADING …     0 2022-07-01  2022     7 Jul    
# … with 16,418 more rows, and abbreviated variable name ¹​month_abbr
…
code
# wide to long format using gather()
sstations <- sum_stations %>% gather(staid,read,-date) %>% left_join(staid, by = 'staid') %>% select(-desc_id)

sstations$date <- mdy(sstations$date)

sstations<-sstations %>% mutate(month = month(date),
                                year = year(date),
                                month_abbr = month(date, label = TRUE, abbr = TRUE))

sstations

# A tibble: 192 × 7
   date       staid  read description                   month  year month_abbr
   <date>     <chr> <dbl> <chr>                         <dbl> <dbl> <ord>     
 1 2021-10-01 FTC    1160 L.A.A. TOTAL FLOW TO THE CITY    10  2021 Oct       
 2 2021-11-01 FTC       0 L.A.A. TOTAL FLOW TO THE CITY    11  2021 Nov       
 3 2021-12-01 FTC    4494 L.A.A. TOTAL FLOW TO THE CITY    12  2021 Dec       
 4 2022-01-01 FTC   15518 L.A.A. TOTAL FLOW TO THE CITY     1  2022 Jan       
 5 2022-02-01 FTC    7054 L.A.A. TOTAL FLOW TO THE CITY     2  2022 Feb       
 6 2022-03-01 FTC    7518 L.A.A. TOTAL FLOW TO THE CITY     3  2022 Mar       
 7 2022-04-01 FTC       0 L.A.A. TOTAL FLOW TO THE CITY     4  2022 Apr       
 8 2022-05-01 FTC      45 L.A.A. TOTAL FLOW TO THE CITY     5  2022 May       
 9 2022-06-01 FTC    2682 L.A.A. TOTAL FLOW TO THE CITY     6  2022 Jun       
10 2022-07-01 FTC    4257 L.A.A. TOTAL FLOW TO THE CITY     7  2022 Jul       
# … with 182 more rows
…
# tmm

8 Merge old and new

code
update.merged3 <- bind_rows(update.merged2, monthlies)
# tm_all_merged

update.merged3 

# A tibble: 798,857 × 10
   date       staid  read description      month  year month…¹    wy   roy irrag
   <date>     <chr> <dbl> <chr>            <dbl> <dbl> <chr>   <dbl> <dbl> <dbl>
 1 2021-10-01 FTC    1160 L.A.A. TOTAL FL…    10  2021 Oct      2022  2021    NA
 2 2021-11-01 FTC       0 L.A.A. TOTAL FL…    11  2021 Nov      2022  2021    NA
 3 2021-12-01 FTC    4494 L.A.A. TOTAL FL…    12  2021 Dec      2022  2021    NA
 4 2022-01-01 FTC   15518 L.A.A. TOTAL FL…     1  2022 Jan      2022  2021    NA
 5 2022-02-01 FTC    7054 L.A.A. TOTAL FL…     2  2022 Feb      2022  2021    NA
 6 2022-03-01 FTC    7518 L.A.A. TOTAL FL…     3  2022 Mar      2022  2021    NA
 7 2022-04-01 FTC       0 L.A.A. TOTAL FL…     4  2022 Apr      2022  2022  2022
 8 2022-05-01 FTC      45 L.A.A. TOTAL FL…     5  2022 May      2022  2022  2022
 9 2022-06-01 FTC    2682 L.A.A. TOTAL FL…     6  2022 Jun      2022  2022  2022
10 2022-07-01 FTC    4257 L.A.A. TOTAL FL…     7  2022 Jul      2022  2022  2022
# … with 798,847 more rows, and abbreviated variable name ¹​month_abbr
…
WellName The WellName column is required and must contain the name of a monitoring point within the basin selected when the file was uploaded.

FlowDate The FlowDate column is required. The field must be a date.

FlowRateAcFtPM The FlowRateAcFtPM column is required and must be numeric. Units are in acre-foot per month

code
flow.meta <- read_csv(here('data','hydro','Flows.csv')) %>%  select(mon_pt_name, LADWP_ID) %>% unique() %>% mutate(staid = as.character(LADWP_ID)) %>% select(-LADWP_ID)

code
tm22 <- tm_process_for_ovga %>% filter(date > "2021-09-30" & read != -777)
tm22

# A tibble: 8,830 × 10
   date       staid  read description      month  year month…¹    wy   roy irrag
   <date>     <chr> <dbl> <chr>            <dbl> <dbl> <chr>   <dbl> <dbl> <dbl>
 1 2021-10-01 FTC    1160 L.A.A. TOTAL FL…    10  2021 Oct      2022  2021    NA
 2 2021-11-01 FTC       0 L.A.A. TOTAL FL…    11  2021 Nov      2022  2021    NA
 3 2021-12-01 FTC    4494 L.A.A. TOTAL FL…    12  2021 Dec      2022  2021    NA
 4 2022-01-01 FTC   15518 L.A.A. TOTAL FL…     1  2022 Jan      2022  2021    NA
 5 2022-02-01 FTC    7054 L.A.A. TOTAL FL…     2  2022 Feb      2022  2021    NA
 6 2022-03-01 FTC    7518 L.A.A. TOTAL FL…     3  2022 Mar      2022  2021    NA
 7 2022-04-01 FTC       0 L.A.A. TOTAL FL…     4  2022 Apr      2022  2022  2022
 8 2022-05-01 FTC      45 L.A.A. TOTAL FL…     5  2022 May      2022  2022  2022
 9 2022-06-01 FTC    2682 L.A.A. TOTAL FL…     6  2022 Jun      2022  2022  2022
10 2022-07-01 FTC    4257 L.A.A. TOTAL FL…     7  2022 Jul      2022  2022  2022
# … with 8,820 more rows, and abbreviated variable name ¹​month_abbr
…
code
sw.flow <- flow_ovga  %>% 
  mutate(WellName = mon_pt_name,
         FlowDate = date,
         FlowRateAcFtPM = read,
         FlowRateCFS = "",
         FlowRateGPM = "") 

sw.flow %>% 
  filter(FlowRateAcFtPM < 600000) %>% 
  select(WellName,FlowDate,FlowRateAcFtPM)

# A tibble: 6,430 × 3
   WellName FlowDate   FlowRateAcFtPM
   <chr>    <date>              <dbl>
 1 SW0132   2021-10-01              0
 2 SW0132   2021-11-01              0
 3 SW0132   2021-12-01              0
 4 SW0132   2022-01-01              0
 5 SW0132   2022-02-01              0
 6 SW0132   2022-03-01              0
 7 SW0132   2022-04-01              0
 8 SW0132   2022-05-01              0
 9 SW0132   2022-06-01              0
10 SW0132   2022-07-01              0
# … with 6,420 more rows
…
  # stringr::str_detect(sw_other, paste(sw, collapse = "|"))

# (staid %in% c("T","V","W","F"))

 # tt <- tm_process_for_ovga %>% semi_join(t)

12 QA

code
# check ovr

update.merged3 %>% filter(staid == 'SHTO') %>% group_by(wy) %>% summarise(n = n())

# A tibble: 87 × 2
      wy     n
   <dbl> <int>
 1  1936    12
 2  1937    12
 3  1938    12
 4  1939    12
 5  1940    12
 6  1941    12
 7  1942    12
 8  1943    12
 9  1944    12
10  1945    12
# … with 77 more rows
…
