Open Science Notebook - Steps to update ICWD’s monitoring well database from LADWP Water Year Data Transfer
…
clean up the date with formal date specification

code
# rename the columns
testwell.up <- try %>% select(-date, -datetime) %>% rename(date = date.y.m.d) %>% mutate(source = "DWP") 

5 Append updates to master database

code
testwells.combined <- bind_rows(hist,testwell.up) 

testwells.combined

# A tibble: 1,048,444 × 11
   staid date       dtw.rp dtw.bgs   wse  year month   day  hour minute source
   <chr> <date>      <dbl>   <dbl> <dbl> <dbl> <dbl> <dbl> <dbl>  <dbl> <chr> 
 1 F001  1971-11-18    4.8     4      NA  1971    11    18     0      0 DWP   
 2 F001  1972-01-13    4.4     3.6    NA  1972     1    13     0      0 DWP   
 3 F001  1972-02-11    9.6     8.8    NA  1972     2    11     0      0 DWP   
 4 F001  1972-03-17   11      10.2    NA  1972     3    17     0      0 DWP   
 5 F001  1972-04-14   12.8    12      NA  1972     4    14     0      0 DWP   
 6 F001  1972-05-12   14.3    13.5    NA  1972     5    12     0      0 DWP   
 7 F001  1972-06-08   14.7    13.9    NA  1972     6     8     0      0 DWP   
 8 F001  1972-07-13   17.2    16.4    NA  1972     7    13     0      0 DWP   
 9 F001  1973-01-23   26.7    25.9    NA  1973     1    23     0      0 DWP   
10 F001  1973-02-16   27.7    26.9    NA  1973     2    16     0      0 DWP   
# … with 1,048,434 more rows
…
7 Summary and QA QC checks

Plot out some indicator well hydrographs

find unique staids and dates

ranges of values.

Often WSE appears to be accidentally entered in the depth measurements

code
testwells.combined %>% distinct(staid)

# A tibble: 1,352 × 1
   staid
   <chr>
 1 F001 
 2 F002 
 3 F007 
 4 F009 
 5 F015 
 6 F016 
 7 F018 
 8 F022 
 9 F023 
10 F024 
# … with 1,342 more rows

code
testwells.combined %>% group_by(staid, year) %>% summarise(n = n())

# A tibble: 34,729 × 3
# Groups:   staid [1,352]
   staid  year     n
   <chr> <dbl> <int>
 1 F001   1971     1
 2 F001   1972     7
 3 F001   1973     7
 4 F001   1974    12
 5 F001   1975     8
 6 F001   1976    12
 7 F001   1977    12
 8 F001   1978    11
 9 F001   1979    10
10 F001   1980     5
# … with 34,719 more rows
…
# pull the most recent date when rp elevations reported
rpelev_3 <- rpelev_2 %>% 
  group_by(staid) %>%
  summarise(date = max(date))

rpelev_4 <- rpelev_3 %>% 
  left_join(rpelev_2, by = c("staid","date")) %>% 
  mutate(latest_rp_date = date) %>% 
  select(-date,-date_c)

rpelev_4

# A tibble: 1,178 × 3
   staid rp_elev     latest_rp_date
   <chr> <chr>       <date>        
 1 F001  3808.699951 2017-09-12    
 2 F002  3810.600098 2017-09-14    
 3 F007  3808.199951 2017-08-07    
 4 F009  3804.389893 2016-09-06    
 5 F015  3835.929932 1996-12-12    
 6 F016  3818.439941 1993-01-08    
 7 F018  3805.899902 2017-06-20    
 8 F022  3806.699951 2017-08-07    
 9 F023  3824.899902 2017-08-07    
10 F024  3805.199951 2016-08-01    
# … with 1,168 more rows
…
read in processed data through the most recent water year updates

code
m <- testwells.combined

filter the master data table to the years needed for OVGA updates. Now that it is updated through the 2022 water year, follow instruction by changing the filter date to pluck off the update year.

code
m1 <- m  %>% filter(date > "2021-09-30") %>% select(staid,date,dtw.rp)
#1261 records
# note: In Dec 2023 when the 2023 water year data is provided, change filter above to "2022-09-30"
m1

# A tibble: 133,891 × 3
   staid date       dtw.rp
   <chr> <date>      <dbl>
 1 T455  2021-10-25   7.5 
 2 T455  2022-01-13   7.27
 3 T455  2022-04-29   7.15
 4 T455  2022-07-18   7.71
 5 T508  2021-10-29  13.8 
 6 T508  2022-01-14  13.6 
 7 T508  2022-04-14  13.3 
 8 T508  2022-07-19  13.6 
 9 T549  2022-04-29  17.6 
10 T630  2021-10-25   6.3 
# … with 133,881 more rows

join the rp elevations to the annual updates

code
# join latest rp elevation measurements provided by LA
dtwrp.rpelev <- m1 %>% left_join(rpelev_4, by = 'staid')

dtwrp.rpelev

# A tibble: 133,891 × 5
   staid date       dtw.rp rp_elev     latest_rp_date
   <chr> <date>      <dbl> <chr>       <date>        
 1 T455  2021-10-25   7.5  3823.4      2018-03-30    
 2 T455  2022-01-13   7.27 3823.4      2018-03-30    
 3 T455  2022-04-29   7.15 3823.4      2018-03-30    
 4 T455  2022-07-18   7.71 3823.4      2018-03-30    
 5 T508  2021-10-29  13.8  3787.1      2018-03-27    
 6 T508  2022-01-14  13.6  3787.1      2018-03-27    
 7 T508  2022-04-14  13.3  3787.1      2018-03-27    
 8 T508  2022-07-19  13.6  3787.1      2018-03-27    
 9 T549  2022-04-29  17.6  3858.800049 2017-04-17    
10 T630  2021-10-25   6.3  3813.100098 2017-07-26    
# … with 133,881 more rows

code
dtwrpavg.rpelev <- dtwrp.rpelev %>% group_by(staid, date, rp_elev) %>% summarise(dtw.rp =  round(mean(dtw.rp),2))

how many staids in LA database received and how many are missing from the ovga database

read in ovga points here

code
ovga_points <- read_csv(here("data","hydro","Owens_Monitoring_Points.csv"))
ovga_points

# A tibble: 6,048 × 8
   mon_pt_id site_id mon_pt_name   mon_pt_lat mon_pt_long coord…¹ county hide_…²
       <dbl>   <dbl> <chr>              <dbl>       <dbl> <chr>   <chr>    <dbl>
 1         1       1 01S32E29D001M       37.8       -118. NAD83   Mono         0
 2         2       1 01S32E31J002M       37.8       -118. NAD83   Mono         0
 3         3       1 01S32E32E001M       37.8       -118. NAD83   Mono         0
 4         4       1 04S33E08M001M       37.6       -118. NAD83   Mono         0
 5         5       1 05S33E09X001M       37.5       -118. NAD83   Mono         0
 6         6       1 05S33E18D001M       37.5       -118. NAD83   Mono         0
 7         7       1 06S31E05H001M       37.5       -119. NAD83   Inyo         0
 8         8       1 06S31E17B001M       37.4       -119. NAD83   Inyo         0
 9         9       1 06S31E19G001M       37.4       -119. NAD83   Inyo         0
10        10       1 06S31E20H001M       37.4       -119. NAD83   Inyo         0
# … with 6,038 more rows, and abbreviated variable names ¹​coord_sys,
#   ²​hide_from_public

code
LA.staids <- dtwrpavg.rpelev %>% group_by(staid) %>% summarise(records = n())

LA.staids.in.ovga <- LA.staids %>% semi_join(ovga_points, by = c("staid"="mon_pt_name"))

LA.staids.notin.ovga <- LA.staids %>% anti_join(ovga_points, by = c("staid"="mon_pt_name"))
#1045 staids provided by LA and 822 of these staids present in ovga database. 223 not in ovga database.

# in 2022, 71 staids not in ovga db

LA.staids

# A tibble: 804 × 2
   staid records
   <chr>   <int>
 1 F033        9
 2 F035        9
 3 F037        1
 4 F052       12
 5 F077       13
 6 F082       10
 7 F085       12
 8 F122        1
 9 F124       11
10 F380        1
# … with 794 more rows

code
# LA provided depth data for `r LA.staids` staids in the annual data transfer. 
# The ovga database matches `r LA.staids.in.ovga` staids and is missing `r LA.staids.notin.ovga` staids.
LA.staids.in.ovga

# A tibble: 733 × 2
   staid records
   <chr>   <int>
 1 F033        9
 2 F035        9
 3 F037        1
 4 F052       12
 5 F077       13
 6 F082       10
 7 F085       12
 8 F122        1
 9 F124       11
10 T001        2
# … with 723 more rows

code
LA.staids.notin.ovga

# A tibble: 71 × 2
   staid records
   <chr>   <int>
 1 F380        1
 2 FS3D      365
 3 FS3S      365
 4 S001        4
 5 S002        4
 6 S004        4
 7 S005        4
 8 S006        4
 9 S007        4
10 T313B      12
# … with 61 more rows
…
# A tibble: 1 × 1
  count.na
     <int>
1      117

filter records in the set corresponding to monitoring points without rp elevation

code
rpcheck <- dtwrpavg.rpelev %>% semi_join(na.rp.elev, by = "staid")
rpcheck

# A tibble: 117 × 4
# Groups:   staid, date [117]
   staid date       rp_elev dtw.rp
   <chr> <date>     <chr>    <dbl>
 1 T013U 2021-10-29 <NA>      5.1 
 2 T013U 2021-11-18 <NA>      4.74
 3 T013U 2021-12-19 <NA>      4.26
 4 T013U 2022-01-20 <NA>      3.58
 5 T013U 2022-02-14 <NA>      3.1 
 6 T013U 2022-03-28 <NA>      3.01
 7 T013U 2022-05-25 <NA>      3.4 
 8 T013U 2022-06-09 <NA>      3.97
 9 T013U 2022-07-18 <NA>      4.9 
10 T013U 2022-08-15 <NA>      4.97
# … with 107 more rows
…
record.number <- dtwrp.rpelev %>% 
  filter(!is.na(rp_elev)) %>% 
  group_by(staid) %>% 
  summarise(count.with.rpe = n()) %>% 
  mutate(MMethod = case_when(count.with.rpe >= 48 ~ "TR",
                            count.with.rpe < 48~ "ES"))

record.number %>% arrange(-count.with.rpe)

# A tibble: 756 × 3
   staid count.with.rpe MMethod
   <chr>          <int> <chr>  
 1 T752            8737 TR     
 2 T753            8737 TR     
 3 T754            8737 TR     
 4 T755            8737 TR     
 5 T756            8737 TR     
 6 T757            8737 TR     
 7 T759            8737 TR     
 8 T758            8036 TR     
 9 T733            4950 TR     
10 V251            4117 TR     
# … with 746 more rows
…
# 
upload 

# A tibble: 15,696 × 11
# Groups:   WellName, DateMeasured [15,696]
   WellName DateMeasured Depth…¹ Refer…² Exclu…³ QAQCL…⁴ MeasM…⁵ NoMea…⁶ Quest…⁷
   <chr>    <date>         <dbl> <chr>   <chr>   <chr>   <chr>   <chr>   <chr>  
 1 F033     2022-01-07      4.55 3833.5  ""      High    ES      ""      ""     
 2 F033     2022-02-09      4.57 3833.5  ""      High    ES      ""      ""     
 3 F033     2022-03-09      4.57 3833.5  ""      High    ES      ""      ""     
 4 F033     2022-04-05      4.57 3833.5  ""      High    ES      ""      ""     
 5 F033     2022-05-05      4.57 3833.5  ""      High    ES      ""      ""     
 6 F033     2022-06-01      4.57 3833.5  ""      High    ES      ""      ""     
 7 F033     2022-07-07      4.57 3833.5  ""      High    ES      ""      ""     
 8 F033     2022-08-02      4.57 3833.5  ""      High    ES      ""      ""     
 9 F033     2022-09-07      4.57 3833.5  ""      High    ES      ""      ""     
10 F035     2022-01-07     10.4  3834.6… ""      High    ES      ""      ""     
# … with 15,686 more rows, 2 more variables: DataSource <chr>, Notes <chr>, and
#   abbreviated variable names ¹​DepthToWater, ²​ReferencePointElevation,
#   ³​ExclusionCondition, ⁴​QAQCLevel, ⁵​MeasMethod, ⁶​NoMeasFlag, ⁷​QuestMeasFlag
…
