Open Science Notebook - NDVI time series (1985-2022) in groundwater-dependent parcels
…
group by parcel and then apply the ecdf custom function that computes the ecdf on each parcel’s time series and returns current year percentiles

code
# group by parcel and then apply the ecdf custom function that
# computes the ecdf on each parcel's time series and returns
# current year percentiles
rpp <- r %>%
  group_by(ZONE_NAME) %>%
  group_modify(~ecdf_custom(df = .))

rpp

# A tibble: 30,534 × 8
# Groups:   ZONE_NAME [792]
   ZONE_NAME  YEAR GB_TYPE COMM_NAME         mean.ndvi sd.ndvi     n percentile
   <chr>     <dbl> <chr>   <chr>                 <dbl>   <dbl> <int>      <dbl>
 1 ABD009     1984 B       Rabbitbrush Scrub    0.104  0.0110      2     0.513 
 2 ABD009     1985 B       Rabbitbrush Scrub    0.100  0.00673     6     0.462 
 3 ABD009     1986 B       Rabbitbrush Scrub    0.139  0.00612     7     0.795 
 4 ABD009     1987 B       Rabbitbrush Scrub    0.0800 0.00347     7     0.179 
 5 ABD009     1988 B       Rabbitbrush Scrub    0.0734 0.0139      6     0.0256
 6 ABD009     1989 B       Rabbitbrush Scrub    0.0749 0.00889     7     0.0769
 7 ABD009     1990 B       Rabbitbrush Scrub    0.0743 0.00201     4     0.0513
 8 ABD009     1991 B       Rabbitbrush Scrub    0.120  0.00680     6     0.615 
 9 ABD009     1992 B       Rabbitbrush Scrub    0.0890 0.00614     6     0.282 
10 ABD009     1993 B       Rabbitbrush Scrub    0.142  0.00564     6     0.872 
# … with 30,524 more rows

create columns for each parcel’s quantile ndvi since 1985, 10% to 90% by 10s.

code
# create columns for each parcel's quantile ndvi since 1985, 10% to 90% by 10s.
# so that quantiles can be plotted
try.q <-
  rpp %>%
  group_by(ZONE_NAME) %>%
  summarise(quants = list(quantile(mean.ndvi, probs = c(.01, .1, .20, .30, .40, .50, .60, .70, .80, .90,.99)))) %>%
  unnest_wider(quants)

try.q

# A tibble: 792 × 12
   ZONE_NAME   `1%`  `10%`  `20%`  `30%`  `40%` `50%` `60%` `70%` `80%` `90%`
   <chr>      <dbl>  <dbl>  <dbl>  <dbl>  <dbl> <dbl> <dbl> <dbl> <dbl> <dbl>
 1 ABD009    0.0737 0.0777 0.0821 0.0963 0.0982 0.104 0.119 0.130 0.139 0.147
 2 BEE012    0.106  0.126  0.152  0.167  0.186  0.195 0.203 0.219 0.229 0.297
 3 BEE014    0.193  0.274  0.291  0.303  0.315  0.333 0.354 0.383 0.399 0.418
 4 BEE018    0.114  0.121  0.125  0.131  0.136  0.139 0.147 0.154 0.158 0.169
 5 BEE019    0.106  0.112  0.115  0.120  0.124  0.128 0.135 0.145 0.149 0.166
 6 BEE020    0.151  0.158  0.166  0.171  0.181  0.190 0.193 0.206 0.216 0.269
 7 BEE022    0.240  0.379  0.407  0.431  0.443  0.467 0.493 0.512 0.531 0.562
 8 BGP011    0.368  0.376  0.417  0.430  0.436  0.442 0.455 0.471 0.491 0.520
 9 BGP015    0.380  0.402  0.420  0.428  0.439  0.459 0.463 0.484 0.502 0.537
10 BGP016    0.473  0.509  0.538  0.548  0.562  0.574 0.588 0.615 0.628 0.665
# … with 782 more rows, and 1 more variable: `99%` <dbl>

join the quantile columns (parcel level) to the parcel-year level. also clean names

code
# join the quantile columns (parcel level) to the parcel-year level
# also clean names
rqc <- rpp %>% left_join(try.q, by = 'ZONE_NAME')%>% clean_names()

rqc

# A tibble: 30,534 × 19
# Groups:   zone_name [792]
   zone_name  year gb_type comm_…¹ mean_…² sd_ndvi     n perce…³ x1_pe…⁴ x10_p…⁵
   <chr>     <dbl> <chr>   <chr>     <dbl>   <dbl> <int>   <dbl>   <dbl>   <dbl>
 1 ABD009     1984 B       Rabbit…  0.104  0.0110      2  0.513   0.0737  0.0777
 2 ABD009     1985 B       Rabbit…  0.100  0.00673     6  0.462   0.0737  0.0777
 3 ABD009     1986 B       Rabbit…  0.139  0.00612     7  0.795   0.0737  0.0777
 4 ABD009     1987 B       Rabbit…  0.0800 0.00347     7  0.179   0.0737  0.0777
 5 ABD009     1988 B       Rabbit…  0.0734 0.0139      6  0.0256  0.0737  0.0777
 6 ABD009     1989 B       Rabbit…  0.0749 0.00889     7  0.0769  0.0737  0.0777
 7 ABD009     1990 B       Rabbit…  0.0743 0.00201     4  0.0513  0.0737  0.0777
 8 ABD009     1991 B       Rabbit…  0.120  0.00680     6  0.615   0.0737  0.0777
 9 ABD009     1992 B       Rabbit…  0.0890 0.00614     6  0.282   0.0737  0.0777
10 ABD009     1993 B       Rabbit…  0.142  0.00564     6  0.872   0.0737  0.0777
# … with 30,524 more rows, 9 more variables: x20_percent <dbl>,
#   x30_percent <dbl>, x40_percent <dbl>, x50_percent <dbl>, x60_percent <dbl>,
#   x70_percent <dbl>, x80_percent <dbl>, x90_percent <dbl>, x99_percent <dbl>,
#   and abbreviated variable names ¹​comm_name, ²​mean_ndvi, ³​percentile,
#   ⁴​x1_percent, ⁵​x10_percent

calculate a standard error for the seasonal ndvi average from the standard deviation of the ndvi for each scene and number of scenes in the period.

code
# calculate a standard error for plots
rqc2 <- rqc %>% mutate(se = sd_ndvi/sqrt(n))
rqc

# A tibble: 30,534 × 19
# Groups:   zone_name [792]
   zone_name  year gb_type comm_…¹ mean_…² sd_ndvi     n perce…³ x1_pe…⁴ x10_p…⁵
   <chr>     <dbl> <chr>   <chr>     <dbl>   <dbl> <int>   <dbl>   <dbl>   <dbl>
 1 ABD009     1984 B       Rabbit…  0.104  0.0110      2  0.513   0.0737  0.0777
 2 ABD009     1985 B       Rabbit…  0.100  0.00673     6  0.462   0.0737  0.0777
 3 ABD009     1986 B       Rabbit…  0.139  0.00612     7  0.795   0.0737  0.0777
 4 ABD009     1987 B       Rabbit…  0.0800 0.00347     7  0.179   0.0737  0.0777
 5 ABD009     1988 B       Rabbit…  0.0734 0.0139      6  0.0256  0.0737  0.0777
 6 ABD009     1989 B       Rabbit…  0.0749 0.00889     7  0.0769  0.0737  0.0777
 7 ABD009     1990 B       Rabbit…  0.0743 0.00201     4  0.0513  0.0737  0.0777
 8 ABD009     1991 B       Rabbit…  0.120  0.00680     6  0.615   0.0737  0.0777
 9 ABD009     1992 B       Rabbit…  0.0890 0.00614     6  0.282   0.0737  0.0777
10 ABD009     1993 B       Rabbit…  0.142  0.00564     6  0.872   0.0737  0.0777
# … with 30,524 more rows, 9 more variables: x20_percent <dbl>,
#   x30_percent <dbl>, x40_percent <dbl>, x50_percent <dbl>, x60_percent <dbl>,
#   x70_percent <dbl>, x80_percent <dbl>, x90_percent <dbl>, x99_percent <dbl>,
#   and abbreviated variable names ¹​comm_name, ²​mean_ndvi, ³​percentile,
#   ⁴​x1_percent, ⁵​x10_percent
…
